WeenieName (Unused in Program),WeenieWCID,Item Name (Unused in Program),Item Wcid,Palette,Shade,Destination,Stack Size,Try to Bond
Snowman,5761,Giant Snowman Head,32184,0,0.1,9,1,0
Snowman,5761,Snowman Head,70280,0,0.1,9,1,0
Snowman,5765,Giant Snowman Head,32184,0,0.1,9,1,0
Snowman,5765,Snowman Head,70280,0,0.1,9,1,0
Snowman,5766,Giant Snowman Head,32184,0,0.1,9,1,0
Snowman,5766,Snowman Head,70280,0,0.1,9,1,0
Giant Snowman ,5767,Giant Snowman Head,32184,0,0.1,9,1,0
Scavenger Ursuin,7989,Ursuin Legs,32171,0,0.1,9,1,0
Tiofor Ursuin,7989,Ursuin Legs,32171,0,0.1,9,1,0
Scavenger Ursuin,7989,Ursuin Torso,32174,0,0.1,9,1,0
Tiofor Ursuin,7989,Ursuin Torso,32174,0,0.1,9,1,0
Scavenger Ursuin,7989,Ursuin Arm,32170,0,0.1,9,1,0
Tiofor Ursuin,7989,Ursuin Arm,32170,0,0.1,9,1,0
Field Ursuin,7990,Ursuin Legs,32171,0,0.1,9,1,0
Field Ursuin,7990,Ursuin Torso,32174,0,0.1,9,1,0
Field Ursuin,7990,Ursuin Arm,32170,0,0.1,9,1,0
Linvak Ursuin,7993,Ursuin Legs,32171,0,0.1,9,1,0
Linvak Ursuin,7993,Ursuin Torso,32174,0,0.1,9,1,0
Linvak Ursuin,7993,Ursuin Arm,32170,0,0.1,9,1,0
Dire Ursuin,7994,Ursuin Legs,32171,0,0.1,9,1,0
Dire Ursuin,7994,Ursuin Torso,32174,0,0.1,9,1,0
Dire Ursuin,7994,Ursuin Arm,32170,0,0.1,9,1,0
Sotiris Hollow Minion,8270,Hollow Minion's Face,25559,0,0.1,9,1,0
Terebrous Hollow Minion,10787,Hollow Minion's Face,25559,0,0.1,9,1,0
Terebrous Hollow Minion,10789,Hollow Minion's Face,25559,0,0.1,9,1,0
Minion Leader,12681,Hollow Minion's Face,25559,0,0.1,9,1,0
Two Headed Snowman ,14466,Two Headed Snowman Head,32185,0,0.1,9,1,0
Terebrous Hollow Minion,16914,Hollow Minion's Face,25559,0,0.1,9,1,0
Telumiat Hollow Minion,23555,Hollow Minion's Face,25559,0,0.1,9,1,0
Dreadful Ursuin,23568,Ursuin Legs,32171,0,0.1,9,1,0
Dreadful Ursuin,23568,Ursuin Torso,32174,0,0.1,9,1,0
Dreadful Ursuin,23568,Ursuin Arm,32170,0,0.1,9,1,0
Telumiat Hollow Minion,27417,Hollow Minion's Face,25559,0,0.1,9,1,0
Telumiat Hollow Minion,27497,Hollow Minion's Face,25559,0,0.1,9,1,0
Ferocious Ursuin,27715,Ursuin Legs,32171,0,0.1,9,1,0
Ferocious Ursuin,27715,Ursuin Torso,32174,0,0.1,9,1,0
Ferocious Ursuin,27715,Ursuin Arm,32170,0,0.1,9,1,0
Raging Ursuin,27716,Ursuin Legs,32171,0,0.1,9,1,0
Raging Ursuin,27716,Ursuin Torso,32174,0,0.1,9,1,0
Raging Ursuin,27716,Ursuin Arm,32170,0,0.1,9,1,0
Frenzied Fiun,28644,Fiun Head,32179,0,0.1,9,1,0
Sycophantic Penguin,28658,Penguin Head,70275,0,0.1,9,1,0
Uber Penguin Head (160),28660,Uber Penguin Head,70278,0,0.1,9,1,0
Uber Penguin Head (220),28661,Uber Penguin Head,70278,0,0.1,9,1,0
Penguin,28662,Penguin Head,70275,0,0.1,9,1,0
Arrogant Penguin,28663,Penguin Head,70275,0,0.1,9,1,0
Augmented Penguin,28664,Penguin Head,70275,0,0.1,9,1,0
Ruschk Slayer,28666,Ruschk Head,70279,0,0.1,9,1,0
Ruschk Warlord,28668,Ruschk Head,70279,0,0.1,9,1,0
Barbaric Ruschk,28669,Ruschk Head,70279,0,0.1,9,1,0
Ruschk Laktar,29342,Ruschk Head,70279,0,0.1,9,1,0
Ruschk Sadist,29344,Ruschk Head,70279,0,0.1,9,1,0
Blighted Dire Ursuin,38181,Ursuin Legs,32171,0,0.1,9,1,0
Blighted Dire Ursuin,38181,Ursuin Torso,32174,0,0.1,9,1,0
Blighted Dire Ursuin,38181,Ursuin Arm,32170,0,0.1,9,1,0